<<<<<<< HEAD
sl_store,sl_address,sl_address2,sl_city,sl_state,sl_zip,sl_country,l_latitude,sl_longitude,sl_phone
Boots,27 The Mill Centre,Clondalkin,Dublin,,,Republic of Ireland,,,01 4577611
Boots,Roselawn Shopping Ctr,Blanchardstown,Dublin,,,Republic of Ireland,,,01 8214345
Boots,223-224 Blanchardstown Centre,Blanchardstown,Dublin,,,Republic of Ireland,,,01 8222052
Boots,G6 The Pavilions Shopping Ctr,Swords,Dublin,,,Republic of Ireland,,,01 8904560
Boots,2 Church Road,Malahide,Dublin,,,Republic of Ireland,,,01 8168610
Boots,105 Main Street,,Bray,,,Republic of Ireland,,,01 2763843
Boots,23-24 Carton Park,,Maynooth,,,Republic of Ireland,,,01 6016721
Boots,Monread Shopping Centre,,Naas,,,Republic of Ireland,,,045 899332
Boots,2 Dublin Rd,,Naas,,,Republic of Ireland,,,045 901042
Boots,12 Millfield Shopping Ctr,,Balbriggan,,,Republic of Ireland,,,01 8416085
Boots,Laurence Shopping Ctr,,Drogheda,,,Republic of Ireland,,,041 9810293
Boots,NE3-NE4 Navan Shopping Ctr,,Navan,,,Republic of Ireland,,,046 9059801
Boots,71-72 Patrick St,,Cork,,,Republic of Ireland,,,021 4270977
Boots,Half Moon St,,Cork,,,Republic of Ireland,,,021 4273736
Boots,Blackpool Retail Park,,Cork,,,Republic of Ireland,,,021 4212036
Boots,F6 Merchants Quay,,Cork,,,Republic of Ireland,,,021 4272230
Boots,13-14 Douglas Court Shopping Ctr,,Cork,,,Republic of Ireland,,,021 4364583
Boots,39 Wilton Shopping Ctr,,Cork,,,Republic of Ireland,,,021 4546500
Boots,48 & 49 Mahon Point Shopping Ctr,,Cork,,,Republic of Ireland,,,021 4614413
Boots,"Unit 7 Owenabue Mall, Main Street",,Carrigaline,,,Republic of Ireland,,,021 4376678
Boots,12-13 South Main Street,,Bandon,,,Republic of Ireland,,,023 8829382
Boots,108 Davis Street,,Mallow,,,Republic of Ireland,,,022 50633
Boots,Fair Green Plz,,Macroom,,,Republic of Ireland,,,026 43984
Boots,35 Shop St,,Galway,,,Republic of Ireland,,,091 561022
Boots,40-42 O'Connel St,,Ennis,,,Republic of Ireland,,,065 6868394
Boots,4-5 William St,,Limerick,,,Republic of Ireland,,,061 416598
Boots,Childers Road Retail Park,,Limerick,,,Republic of Ireland,,,061 422017
Boots,"The Crescent Centre,",Dooradoyle Road,Limerick,,,Republic of Ireland,,,061 225214
Boots,26-29 Thurles Shopping Ctr,,Thurles,,,Republic of Ireland,,,050 424594
Boots,5-6 Gladstone St,,Clonmel,,,Republic of Ireland,,,052 6183170
Boots,Unit B3 Golden Island Shopping Centre,,Athlone,,,Republic of Ireland,,,090 6476955
Boots,9 Main St,,Roscommon,,,Republic of Ireland,,,090 6665606
Boots,18 Ballymahon St,,Longford,,,Republic of Ireland,,,043 3345841
Boots,18-19 Harbour Place Shopping Centre,,Mullingar,,,Republic of Ireland,,,044 9345580
Boots,11 Deer Park,,Killarney,,,Republic of Ireland,,,064 6620919
Boots,"Unit 12B Central Plaza,",Abbey Court,Tralee,,,Republic of Ireland,,,066 7124686
Boots,Georges Court Shopping Centre,,Waterford,,,Republic of Ireland,,,051 872255
Boots,36-38 High St,,Kilkenny,,,Republic of Ireland,,,056 7771222
Boots,Unit 1-35 MacDonagh Junction Shopping,,Kilkenny,,,Republic of Ireland,,,056 7712415
Boots,54 High St Nth,,Wexford,,,Republic of Ireland,,,053 9147851
Boots,Bridgewater Shopping Centre,,Arklow,,,Republic of Ireland,,,040 224273
Boots,85-86 Main St,,Gorey,,,Republic of Ireland,,,053 9489536
Boots,21 Pearse Street,,Ballina,,,Republic of Ireland,,,096 75602
Boots,Hopkins Rd,,Castlebar,,,Republic of Ireland,,,094 9060823
Boots,"10,11 & 12 Johnston Court Shopping Centre",,Sligo,,,Republic of Ireland,,,
Boots,Letterkenny Retail Park,,Letterkenny,,,Republic of Ireland,,,074 9125631
Boots,4-6 Lower Main St,,Letterkenny,,,Republic of Ireland,,,074 9125499
Boots,91 Main Street,,Cavan,,,Republic of Ireland,,,049 4380699
Open Sesame Gort,Unit 6,Market Hall,Gort,,,Republic of Ireland,,,091 632 778
=======
sl_store,sl_address,sl_address2,sl_city,sl_state,sl_zip,sl_country,l_latitude,sl_longitude,sl_phone
Boots,27 The Mill Centre,Clondalkin,Dublin,,,Republic of Ireland,,,01 4577611
Boots,Roselawn Shopping Ctr,Blanchardstown,Dublin,,,Republic of Ireland,,,01 8214345
Boots,223-224 Blanchardstown Centre,Blanchardstown,Dublin,,,Republic of Ireland,,,01 8222052
Boots,G6 The Pavilions Shopping Ctr,Swords,Dublin,,,Republic of Ireland,,,01 8904560
Boots,2 Church Road,Malahide,Dublin,,,Republic of Ireland,,,01 8168610
Boots,105 Main Street,,Bray,,,Republic of Ireland,,,01 2763843
Boots,23-24 Carton Park,,Maynooth,,,Republic of Ireland,,,01 6016721
Boots,Monread Shopping Centre,,Naas,,,Republic of Ireland,,,045 899332
Boots,2 Dublin Rd,,Naas,,,Republic of Ireland,,,045 901042
Boots,12 Millfield Shopping Ctr,,Balbriggan,,,Republic of Ireland,,,01 8416085
Boots,Laurence Shopping Ctr,,Drogheda,,,Republic of Ireland,,,041 9810293
Boots,NE3-NE4 Navan Shopping Ctr,,Navan,,,Republic of Ireland,,,046 9059801
Boots,71-72 Patrick St,,Cork,,,Republic of Ireland,,,021 4270977
Boots,Half Moon St,,Cork,,,Republic of Ireland,,,021 4273736
Boots,Blackpool Retail Park,,Cork,,,Republic of Ireland,,,021 4212036
Boots,F6 Merchants Quay,,Cork,,,Republic of Ireland,,,021 4272230
Boots,13-14 Douglas Court Shopping Ctr,,Cork,,,Republic of Ireland,,,021 4364583
Boots,39 Wilton Shopping Ctr,,Cork,,,Republic of Ireland,,,021 4546500
Boots,48 & 49 Mahon Point Shopping Ctr,,Cork,,,Republic of Ireland,,,021 4614413
Boots,"Unit 7 Owenabue Mall, Main Street",,Carrigaline,,,Republic of Ireland,,,021 4376678
Boots,12-13 South Main Street,,Bandon,,,Republic of Ireland,,,023 8829382
Boots,108 Davis Street,,Mallow,,,Republic of Ireland,,,022 50633
Boots,Fair Green Plz,,Macroom,,,Republic of Ireland,,,026 43984
Boots,35 Shop St,,Galway,,,Republic of Ireland,,,091 561022
Boots,40-42 O'Connel St,,Ennis,,,Republic of Ireland,,,065 6868394
Boots,4-5 William St,,Limerick,,,Republic of Ireland,,,061 416598
Boots,Childers Road Retail Park,,Limerick,,,Republic of Ireland,,,061 422017
Boots,"The Crescent Centre,",Dooradoyle Road,Limerick,,,Republic of Ireland,,,061 225214
Boots,26-29 Thurles Shopping Ctr,,Thurles,,,Republic of Ireland,,,050 424594
Boots,5-6 Gladstone St,,Clonmel,,,Republic of Ireland,,,052 6183170
Boots,Unit B3 Golden Island Shopping Centre,,Athlone,,,Republic of Ireland,,,090 6476955
Boots,9 Main St,,Roscommon,,,Republic of Ireland,,,090 6665606
Boots,18 Ballymahon St,,Longford,,,Republic of Ireland,,,043 3345841
Boots,18-19 Harbour Place Shopping Centre,,Mullingar,,,Republic of Ireland,,,044 9345580
Boots,11 Deer Park,,Killarney,,,Republic of Ireland,,,064 6620919
Boots,"Unit 12B Central Plaza,",Abbey Court,Tralee,,,Republic of Ireland,,,066 7124686
Boots,Georges Court Shopping Centre,,Waterford,,,Republic of Ireland,,,051 872255
Boots,36-38 High St,,Kilkenny,,,Republic of Ireland,,,056 7771222
Boots,Unit 1-35 MacDonagh Junction Shopping,,Kilkenny,,,Republic of Ireland,,,056 7712415
Boots,54 High St Nth,,Wexford,,,Republic of Ireland,,,053 9147851
Boots,Bridgewater Shopping Centre,,Arklow,,,Republic of Ireland,,,040 224273
Boots,85-86 Main St,,Gorey,,,Republic of Ireland,,,053 9489536
Boots,21 Pearse Street,,Ballina,,,Republic of Ireland,,,096 75602
Boots,Hopkins Rd,,Castlebar,,,Republic of Ireland,,,094 9060823
Boots,"10,11 & 12 Johnston Court Shopping Centre",,Sligo,,,Republic of Ireland,,,
Boots,Letterkenny Retail Park,,Letterkenny,,,Republic of Ireland,,,074 9125631
Boots,4-6 Lower Main St,,Letterkenny,,,Republic of Ireland,,,074 9125499
Boots,91 Main Street,,Cavan,,,Republic of Ireland,,,049 4380699
Open Sesame Gort,Unit 6,Market Hall,Gort,,,Republic of Ireland,,,091 632 778
>>>>>>> bc1825cbd3b1f9f1265615ec0b377cecd2cfd4fd
Simple Simon's Natural Foods & Deli,The Diamond,,Donegal Town,,,Republic of Ireland,,,074 972 3690